{
  "project_info": {
    "project_number": "60869864182",
    "firebase_url": "https://weather-58852.firebaseio.com",
    "project_id": "weather-58852",
    "storage_bucket": "weather-58852.appspot.com"
  },
  "client": [
    {
      "client_info": {
        "mobilesdk_app_id": "1:60869864182:android:fc2d46b0b0c992293d1ad7",
        "android_client_info": {
          "package_name": "com.diegoferreiracaetano.weather"
        }
      },
      "oauth_client": [
        {
          "client_id": "60869864182-3mkdbgt0lng5gfq00phn8k9qkrfq1ard.apps.googleusercontent.com",
          "client_type": 1,
          "android_info": {
            "package_name": "com.diegoferreiracaetano.weather",
            "certificate_hash": "a864e9f4aef8c3ba63d2fe86ff22a255e519a870"
          }
        },
        {
          "client_id": "60869864182-v97klms07pjal21k15c9pvf2fahalq27.apps.googleusercontent.com",
          "client_type": 3
        }
      ],
      "api_key": [
        {
          "current_key": "AIzaSyBc4cGMRyFKJHS_kjy2KaSAhFr0rPL7HEI"
        }
      ],
      "services": {
        "appinvite_service": {
          "other_platform_oauth_client": [
            {
              "client_id": "60869864182-v97klms07pjal21k15c9pvf2fahalq27.apps.googleusercontent.com",
              "client_type": 3
            }
          ]
        }
      }
    }
  ],
  "configuration_version": "1"
}